{
    "catalogs": {},
    "aliases": {},
    "templates": {
      "aoc": {
        "description":"Advent of Code Day template",
        "file-refs": {
          "{basename}.java": "template/day.java.qute"
        }
      }
    }
  }
